.Nhóm trưởng: 
+ tạo đa thức tương ứng.
=> DL: CN 12/11
==========================
+ Dev Ân
+ rút gọn, chuẩn hóa.
DL: T4 0:00 15/11
==========================
.QC:
+ phép +
=> DL: T4 0:00 15/11
==========================
.Dev Phú
+ phép -
=> DL: T4 0:00 15/11
==========================
.Teachnical Leader 
+ phép *
=> DL: T4 0:00 15/11
==========================
.Teachnical Writer
+ đọc, ghi file (DL: T7 11/11)
+ viết báo cáo (DL: T4 19:00 15/11)
===========================
nv chung: viết mã giã thuật toán hoặc 
ý tưởng úp lên bitbucket
